{
  "project_info": {
    "project_number": "549201515071",
    "project_id": "minitwitter-959d7"
  },
  "client": [
    {
      "client_info": {
        "mobilesdk_app_id": "1:549201515071:android:1f506b015ec7b9e7",
        "android_client_info": {
          "package_name": "com.example.srin.minitwitteryamba"
        }
      },
      "oauth_client": [],
      "api_key": [
        {
          "current_key": "AIzaSyDmfo8B4BRSI8UEbxaVjvBEd2bQuUmnm1M"
        }
      ],
      "services": {
        "analytics_service": {
          "status": 1
        },
        "appinvite_service": {
          "status": 1,
          "other_platform_oauth_client": []
        },
        "ads_service": {
          "status": 1
        }
      }
    }
  ],
  "configuration_version": "1"
}